…
## # A tibble: 4 x 3
##   jobtitle                        n med_pay
##   <chr>                       <int>   <dbl>
## 1 Community Aide                 21  11088.
## 2 EMT Firefighter Suppression    26  71875.
## 3 Laborer Hourly                 40  39561.
## 4 Police Officer                109  89932.

salary %>% 
        filter(jobtitle == 'Police Officer Trainee')

## # A tibble: 21 x 7
##    name       jobtitle    deptid descr     hire_dt             annual_rt  gross
##    <chr>      <chr>       <chr>  <chr>     <dttm>                  <dbl>  <dbl>
##  1 Abdulrahm… Police Off… A99416 Police D… 2018-12-28 00:00:00     53512 25348.
##  2 Acosta,Ar… Police Off… A99416 Police D… 2019-07-08 00:00:00     53512    NA 
##  3 Agard,Chr… Police Off… A99416 Police D… 2018-06-13 00:00:00     53512 31369.
##  4 Alrubaiee… Police Off… A99007 Police D… 2018-10-11 00:00:00     53512 37833.
##  5 Alston,Em… Police Off… A99416 Police D… 2007-06-23 00:00:00     53512 15616.
##  6 Anderson,… Police Off… A99416 Police D… 2019-01-28 00:00:00     53512 21061.
##  7 Anyanwu,E… Police Off… A99416 Police D… 2018-12-27 00:00:00     53512 25545.
##  8 Aracena-T… Police Off… A99416 Police D… 2019-02-19 00:00:00     53512 19202.
##  9 Arnold,No… Police Off… A99416 Police D… 2019-01-22 00:00:00     53512 21894.
## 10 Arroyo,Fr… Police Off… A99416 Police D… 2019-07-29 00:00:00     53512    NA 
## # ... with 11 more rows
